<?xml version="1.0" encoding="UTF-8" standalone="no"?>
<!DOCTYPE svg PUBLIC "-//W3C//DTD SVG 1.1//EN" "http://www.w3.org/Graphics/SVG/1.1/DTD/svg11.dtd">
<svg width="100%" height="100%" viewBox="0 0 500 250" version="1.1" xmlns="http://www.w3.org/2000/svg" xmlns:xlink="http://www.w3.org/1999/xlink" xml:space="preserve" xmlns:serif="http://www.serif.com/" style="fill-rule:evenodd;clip-rule:evenodd;stroke-linecap:round;stroke-linejoin:round;stroke-miterlimit:1.5;">
    <g transform="matrix(1,0,0,0.965625,90.4655,-23.2406)">
        <rect x="130" y="-7" width="104" height="320" style="fill:none;stroke:rgb(179,179,179);stroke-width:1.02px;"/>
    </g>
    <g transform="matrix(1,0,0,1,356.465,-128.347)">
        <g transform="matrix(1,0,0,1,0,13)">
            <rect x="62" y="115" width="80" height="35" style="fill:rgb(191,191,191);"/>
        </g>
        <g transform="matrix(1,0,0,1,-50.3645,0.450299)">
            <text x="122.943px" y="146.863px" style="font-family:'ArialMT', 'Arial', sans-serif;font-size:7px;fill:rgb(13,13,13);">PIXI.DisplayObject</text>
        </g>
    </g>
    <g transform="matrix(1,0,0,1,356.465,-59.347)">
        <g transform="matrix(1,0,0,1,0,13)">
            <rect x="62" y="115" width="80" height="35" style="fill:rgb(191,191,191);"/>
        </g>
        <g transform="matrix(1,0,0,1,-50.3645,0.450299)">
            <text x="132.474px" y="146.863px" style="font-family:'ArialMT', 'Arial', sans-serif;font-size:7px;fill:rgb(13,13,13);">GameObject</text>
        </g>
    </g>
    <g transform="matrix(1,0,0,3.97143,356.535,-353.893)">
        <g>
            <rect x="62" y="115" width="80" height="35" style="fill:rgb(217,217,217);"/>
            <clipPath id="_clip1">
                <rect x="62" y="115" width="80" height="35"/>
            </clipPath>
            <g clip-path="url(#_clip1)">
                <g transform="matrix(1,0,0,0.251799,-352.967,79.8121)">
                    <text x="419.517px" y="149.805px" style="font-family:'Arial-BoldMT', 'Arial', sans-serif;font-weight:700;font-size:5px;fill:rgb(128,128,128);">id:</text>
                    <text x="427.015px" y="149.805px" style="font-family:'ArialMT', 'Arial', sans-serif;font-size:5px;fill:rgb(128,128,128);">number</text>
                    <text x="419.517px" y="156.34px" style="font-family:'Arial-BoldMT', 'Arial', sans-serif;font-weight:700;font-size:5px;fill:rgb(128,128,128);">tag:</text>
                    <text x="430.071px" y="156.34px" style="font-family:'ArialMT', 'Arial', sans-serif;font-size:5px;fill:rgb(128,128,128);">string</text>
                    <text x="419.517px" y="162.875px" style="font-family:'Arial-BoldMT', 'Arial', sans-serif;font-weight:700;font-size:5px;fill:rgb(128,128,128);">ﬂags:</text>
                    <text x="434.241px" y="162.875px" style="font-family:'ArialMT', 'Arial', sans-serif;font-size:5px;fill:rgb(128,128,128);">string[]</text>
                    <text x="419.517px" y="169.41px" style="font-family:'Arial-BoldMT', 'Arial', sans-serif;font-weight:700;font-size:5px;fill:rgb(128,128,128);">components:</text>
                    <text x="452.296px" y="169.41px" style="font-family:'ArialMT', 'Arial', sans-serif;font-size:5px;fill:rgb(128,128,128);">Component[]</text>
                    <text x="419.517px" y="175.945px" style="font-family:'Arial-BoldMT', 'Arial', sans-serif;font-weight:700;font-size:5px;fill:rgb(128,128,128);">scene:</text>
                    <text x="436.749px" y="175.945px" style="font-family:'ArialMT', 'Arial', sans-serif;font-size:5px;fill:rgb(128,128,128);">Scene</text>
                    <text x="419.517px" y="189.016px" style="font-family:'Arial-BoldMT', 'Arial', sans-serif;font-weight:700;font-size:5px;fill:rgb(128,128,128);">addChildGameObject (obj: GameObject)</text>
                    <text x="419.517px" y="195.551px" style="font-family:'Arial-BoldMT', 'Arial', sans-serif;font-weight:700;font-size:5px;fill:rgb(128,128,128);">addComponent (comp: Component)</text>
                    <text x="419.517px" y="202.086px" style="font-family:'Arial-BoldMT', 'Arial', sans-serif;font-weight:700;font-size:5px;fill:rgb(128,128,128);">removeComponent (comp: Component)</text>
                    <text x="419.517px" y="208.621px" style="font-family:'Arial-BoldMT', 'Arial', sans-serif;font-weight:700;font-size:5px;fill:rgb(128,128,128);">removeComponentByClass (name: string)</text>
                    <text x="419.517px" y="215.156px" style="font-family:'Arial-BoldMT', 'Arial', sans-serif;font-weight:700;font-size:5px;fill:rgb(128,128,128);">removeAllComponents ()</text>
                    <text x="419.517px" y="221.692px" style="font-family:'Arial-BoldMT', 'Arial', sans-serif;font-weight:700;font-size:5px;fill:rgb(128,128,128);">ﬁndComponentByClass (name: string)</text>
                    <text x="419.517px" y="228.227px" style="font-family:'Arial-BoldMT', 'Arial', sans-serif;font-weight:700;font-size:5px;fill:rgb(128,128,128);">addFlag (ﬂag: string)</text>
                    <text x="419.517px" y="234.762px" style="font-family:'Arial-BoldMT', 'Arial', sans-serif;font-weight:700;font-size:5px;fill:rgb(128,128,128);">removeFlag (ﬂag: string)</text>
                    <text x="419.517px" y="241.297px" style="font-family:'Arial-BoldMT', 'Arial', sans-serif;font-weight:700;font-size:5px;fill:rgb(128,128,128);">hasFlag (ﬂag: string)</text>
                    <text x="419.517px" y="247.832px" style="font-family:'Arial-BoldMT', 'Arial', sans-serif;font-weight:700;font-size:5px;fill:rgb(128,128,128);">update (deltaTime: number<tspan x="483.323px 484.713px " y="247.832px 247.832px ">, </tspan>elapsedTime: number)</text>
                    <text x="419.517px" y="254.367px" style="font-family:'Arial-BoldMT', 'Arial', sans-serif;font-weight:700;font-size:5px;fill:rgb(128,128,128);">destroyObject ()</text>
                    <text x="419.517px" y="260.902px" style="font-family:'Arial-BoldMT', 'Arial', sans-serif;font-weight:700;font-size:5px;fill:rgb(128,128,128);">moveBy (x: number<tspan x="465.919px 467.308px " y="260.902px 260.902px ">, </tspan>y: number)</text>
                    <text x="419.517px" y="267.438px" style="font-family:'Arial-BoldMT', 'Arial', sans-serif;font-weight:700;font-size:5px;fill:rgb(128,128,128);">moveByV<tspan x="442.029px 444.81px " y="267.438px 267.438px ">ec</tspan> (vec: V<tspan x="465.101px 467.881px " y="267.438px 267.438px ">ec</tspan>2)</text>
                    <text x="419.517px" y="273.973px" style="font-family:'Arial-BoldMT', 'Arial', sans-serif;font-weight:700;font-size:5px;fill:rgb(128,128,128);">checkCircleCollisionWith (other: GameObject, radius: number)</text>
                </g>
            </g>
        </g>
    </g>
    <g transform="matrix(1,0,0,1,-185.535,-66)">
        <g transform="matrix(1,0,0,1,354,-34.5)">
            <g transform="matrix(1,0,0,0.59126,0,60.0051)">
                <rect x="62" y="115" width="80" height="35" style="fill:rgb(191,191,191);"/>
            </g>
            <g transform="matrix(1,0,0,1,-50.1069,-6.65822)">
                <text x="142.201px" y="146.863px" style="font-family:'Arial-BoldMT', 'Arial', sans-serif;font-weight:700;font-size:7px;fill:rgb(13,13,13);">Sprite</text>
            </g>
        </g>
        <g>
            <g transform="matrix(1,0,0,1,125,-55.1941)">
                <g transform="matrix(1,0,0,0.59126,0,60.0051)">
                    <rect x="62" y="115" width="80" height="35" style="fill:rgb(191,191,191);"/>
                </g>
                <g transform="matrix(1,0,0,1,-50.1069,-6.65822)">
                    <text x="135.391px" y="146.863px" style="font-family:'ArialMT', 'Arial', sans-serif;font-size:7px;fill:rgb(13,13,13);">PIXI.Sprite</text>
                </g>
            </g>
            <g transform="matrix(1,0,0,1,232,-55.1941)">
                <g transform="matrix(1,0,0,0.59126,0,60.0051)">
                    <path d="M142,132.5C142,122.841 137.364,115 131.653,115L72.347,115C66.636,115 62,122.841 62,132.5C62,142.159 66.636,150 72.347,150L131.653,150C137.364,150 142,142.159 142,132.5Z" style="fill:rgb(217,217,217);"/>
                </g>
                <g transform="matrix(1,0,0,1,-50.1069,-6.65822)">
                    <text x="123.105px" y="146.863px" style="font-family:'ArialMT', 'Arial', sans-serif;font-size:6px;fill:rgb(13,13,13);">componentEnriched</text>
                    <text x="176.473px" y="146.863px" style="font-family:'ArialMT', 'Arial', sans-serif;font-size:7px;fill:rgb(13,13,13);">()</text>
                </g>
            </g>
            <g transform="matrix(1,0,0,1,142,-50.847)">
                <path d="M125,134L152,134" style="fill:none;stroke:black;stroke-width:0.9px;"/>
            </g>
            <g transform="matrix(3.07407,0,0,1,-10.2593,-50.847)">
                <path d="M125,134L152,134" style="fill:none;stroke:black;stroke-width:0.39px;"/>
            </g>
            <path d="M457,83.153L457,93.5" style="fill:none;stroke:black;stroke-width:0.9px;"/>
            <g transform="matrix(-1,-1.22465e-16,1.22465e-16,-1,916.25,182.5)">
                <path d="M459.25,89L461.5,93.5L457,93.5L459.25,89Z" style="fill:rgb(217,217,217);stroke:black;stroke-width:0.9px;"/>
            </g>
        </g>
    </g>
    <g transform="matrix(1,0,0,1,-185.535,-4.06067)">
        <g transform="matrix(1,0,0,1,354,-34.5)">
            <g transform="matrix(1,0,0,0.59126,0,60.0051)">
                <rect x="62" y="115" width="80" height="35" style="fill:rgb(191,191,191);"/>
            </g>
            <g transform="matrix(1,0,0,1,-50.1069,-6.65822)">
                <text x="145.183px" y="146.863px" style="font-family:'Arial-BoldMT', 'Arial', sans-serif;font-weight:700;font-size:7px;fill:rgb(13,13,13);">T<tspan x="148.94px 152.833px " y="146.863px 146.863px ">ex</tspan>t</text>
            </g>
        </g>
        <g>
            <g transform="matrix(1,0,0,1,125,-55.1941)">
                <g transform="matrix(1,0,0,0.59126,0,60.0051)">
                    <rect x="62" y="115" width="80" height="35" style="fill:rgb(191,191,191);"/>
                </g>
                <g transform="matrix(1,0,0,1,-50.1069,-6.65822)">
                    <text x="138.115px" y="146.863px" style="font-family:'ArialMT', 'Arial', sans-serif;font-size:7px;fill:rgb(13,13,13);">PIXI.T<tspan x="156.787px 160.68px " y="146.863px 146.863px ">ex</tspan>t</text>
                </g>
            </g>
            <g transform="matrix(1,0,0,1,232,-55.1941)">
                <g transform="matrix(1,0,0,0.59126,0,60.0051)">
                    <path d="M142,132.5C142,122.841 137.364,115 131.653,115L72.347,115C66.636,115 62,122.841 62,132.5C62,142.159 66.636,150 72.347,150L131.653,150C137.364,150 142,142.159 142,132.5Z" style="fill:rgb(217,217,217);"/>
                </g>
                <g transform="matrix(1,0,0,1,-50.1069,-6.65822)">
                    <text x="123.105px" y="146.863px" style="font-family:'ArialMT', 'Arial', sans-serif;font-size:6px;fill:rgb(13,13,13);">componentEnriched</text>
                    <text x="176.473px" y="146.863px" style="font-family:'ArialMT', 'Arial', sans-serif;font-size:7px;fill:rgb(13,13,13);">()</text>
                </g>
            </g>
            <g transform="matrix(1,0,0,1,142,-50.847)">
                <path d="M125,134L152,134" style="fill:none;stroke:black;stroke-width:0.9px;"/>
            </g>
            <g transform="matrix(3.07407,0,0,1,-10.2593,-50.847)">
                <path d="M125,134L152,134" style="fill:none;stroke:black;stroke-width:0.39px;"/>
            </g>
            <path d="M457,83.153L457,93.5" style="fill:none;stroke:black;stroke-width:0.9px;"/>
            <g transform="matrix(-1,-1.22465e-16,1.22465e-16,-1,916.25,182.5)">
                <path d="M459.25,89L461.5,93.5L457,93.5L459.25,89Z" style="fill:rgb(217,217,217);stroke:black;stroke-width:0.9px;"/>
            </g>
        </g>
    </g>
    <g transform="matrix(1,0,0,1,-185.535,57.8787)">
        <g transform="matrix(1,0,0,1,354,-34.5)">
            <g transform="matrix(1,0,0,0.59126,0,60.0051)">
                <rect x="62" y="115" width="80" height="35" style="fill:rgb(191,191,191);"/>
            </g>
            <g transform="matrix(1,0,0,1,-50.1069,-6.65822)">
                <text x="135.786px" y="146.863px" style="font-family:'Arial-BoldMT', 'Arial', sans-serif;font-weight:700;font-size:7px;fill:rgb(13,13,13);">Container</text>
            </g>
        </g>
        <g>
            <g transform="matrix(1,0,0,1,125,-55.1941)">
                <g transform="matrix(1,0,0,0.59126,0,60.0051)">
                    <rect x="62" y="115" width="80" height="35" style="fill:rgb(191,191,191);"/>
                </g>
                <g transform="matrix(1,0,0,1,-50.1069,-6.65822)">
                    <text x="129.358px" y="146.863px" style="font-family:'ArialMT', 'Arial', sans-serif;font-size:7px;fill:rgb(13,13,13);">PIXI.Container</text>
                </g>
            </g>
            <g transform="matrix(1,0,0,1,232,-55.1941)">
                <g transform="matrix(1,0,0,0.59126,0,60.0051)">
                    <path d="M142,132.5C142,122.841 137.364,115 131.653,115L72.347,115C66.636,115 62,122.841 62,132.5C62,142.159 66.636,150 72.347,150L131.653,150C137.364,150 142,142.159 142,132.5Z" style="fill:rgb(217,217,217);"/>
                </g>
                <g transform="matrix(1,0,0,1,-50.1069,-6.65822)">
                    <text x="123.105px" y="146.863px" style="font-family:'ArialMT', 'Arial', sans-serif;font-size:6px;fill:rgb(13,13,13);">componentEnriched</text>
                    <text x="176.473px" y="146.863px" style="font-family:'ArialMT', 'Arial', sans-serif;font-size:7px;fill:rgb(13,13,13);">()</text>
                </g>
            </g>
            <g transform="matrix(1,0,0,1,142,-50.847)">
                <path d="M125,134L152,134" style="fill:none;stroke:black;stroke-width:0.9px;"/>
            </g>
            <g transform="matrix(3.07407,0,0,1,-10.2593,-50.847)">
                <path d="M125,134L152,134" style="fill:none;stroke:black;stroke-width:0.39px;"/>
            </g>
            <path d="M457,83.153L457,93.5" style="fill:none;stroke:black;stroke-width:0.9px;"/>
            <g transform="matrix(-1,-1.22465e-16,1.22465e-16,-1,916.25,182.5)">
                <path d="M459.25,89L461.5,93.5L457,93.5L459.25,89Z" style="fill:rgb(217,217,217);stroke:black;stroke-width:0.9px;"/>
            </g>
        </g>
    </g>
    <g transform="matrix(1,0,0,1,-185.535,119.818)">
        <g transform="matrix(1,0,0,1,354,-34.5)">
            <g transform="matrix(1,0,0,0.59126,0,60.0051)">
                <rect x="62" y="115" width="80" height="35" style="fill:rgb(191,191,191);"/>
            </g>
            <g transform="matrix(1,0,0,1,-50.1069,-6.65822)">
                <text x="136.948px" y="146.863px" style="font-family:'Arial-BoldMT', 'Arial', sans-serif;font-weight:700;font-size:7px;fill:rgb(13,13,13);">Graphics</text>
            </g>
        </g>
        <g>
            <g transform="matrix(1,0,0,1,125,-55.1941)">
                <g transform="matrix(1,0,0,0.59126,0,60.0051)">
                    <rect x="62" y="115" width="80" height="35" style="fill:rgb(191,191,191);"/>
                </g>
                <g transform="matrix(1,0,0,1,-50.1069,-6.65822)">
                    <text x="130.529px" y="146.863px" style="font-family:'ArialMT', 'Arial', sans-serif;font-size:7px;fill:rgb(13,13,13);">PIXI.Graphics</text>
                </g>
            </g>
            <g transform="matrix(1,0,0,1,232,-55.1941)">
                <g transform="matrix(1,0,0,0.59126,0,60.0051)">
                    <path d="M142,132.5C142,122.841 137.364,115 131.653,115L72.347,115C66.636,115 62,122.841 62,132.5C62,142.159 66.636,150 72.347,150L131.653,150C137.364,150 142,142.159 142,132.5Z" style="fill:rgb(217,217,217);"/>
                </g>
                <g transform="matrix(1,0,0,1,-50.1069,-6.65822)">
                    <text x="123.105px" y="146.863px" style="font-family:'ArialMT', 'Arial', sans-serif;font-size:6px;fill:rgb(13,13,13);">componentEnriched</text>
                    <text x="176.473px" y="146.863px" style="font-family:'ArialMT', 'Arial', sans-serif;font-size:7px;fill:rgb(13,13,13);">()</text>
                </g>
            </g>
            <g transform="matrix(1,0,0,1,142,-50.847)">
                <path d="M125,134L152,134" style="fill:none;stroke:black;stroke-width:0.9px;"/>
            </g>
            <g transform="matrix(3.07407,0,0,1,-10.2593,-50.847)">
                <path d="M125,134L152,134" style="fill:none;stroke:black;stroke-width:0.39px;"/>
            </g>
            <path d="M457,83.153L457,93.5" style="fill:none;stroke:black;stroke-width:0.9px;"/>
            <g transform="matrix(-1,-1.22465e-16,1.22465e-16,-1,916.25,182.5)">
                <path d="M459.25,89L461.5,93.5L457,93.5L459.25,89Z" style="fill:rgb(217,217,217);stroke:black;stroke-width:0.9px;"/>
            </g>
        </g>
    </g>
    <g transform="matrix(1,0,0,3.3195,2.29288,-241.628)">
        <path d="M457,83.153L457,93.5" style="fill:none;stroke:black;stroke-width:0.37px;"/>
    </g>
    <g transform="matrix(-1,-1.22465e-16,1.22465e-16,-1,918.543,157.745)">
        <path d="M459.25,89L461.5,93.5L457,93.5L459.25,89Z" style="fill:rgb(217,217,217);stroke:black;stroke-width:0.9px;"/>
    </g>
    <g transform="matrix(6.12323e-17,1,-3.3195,2.03261e-16,621.493,-420.352)">
        <path d="M506.352,61.162L457,83.153L457,93.5" style="fill:none;stroke:black;stroke-width:0.37px;"/>
    </g>
    <g transform="matrix(6.12323e-17,1,-3.3195,2.03261e-16,621.493,-357.352)">
        <path d="M443.352,61.162L457,83.153L457,93.5" style="fill:none;stroke:black;stroke-width:0.37px;"/>
    </g>
    <g transform="matrix(6.12323e-17,1,-3.3195,2.03261e-16,621.493,-294.352)">
        <path d="M380.352,61.162L457,83.153L457,93.5" style="fill:none;stroke:black;stroke-width:0.37px;"/>
    </g>
    <g transform="matrix(6.12323e-17,1,-3.3195,2.03261e-16,621.493,-233.352)">
        <path d="M319.352,61.162L457,83.153L457,93.5" style="fill:none;stroke:black;stroke-width:0.37px;"/>
    </g>
    <g transform="matrix(6.12323e-17,-1,1,6.12323e-17,222.119,495.898)">
        <path d="M459.25,89L461.5,93.5L457,93.5L459.25,89Z" style="fill:rgb(217,217,217);stroke:black;stroke-width:0.9px;"/>
    </g>
    <g transform="matrix(6.12323e-17,-1,1,6.12323e-17,222.119,558.898)">
        <path d="M459.25,89L461.5,93.5L457,93.5L459.25,89Z" style="fill:rgb(217,217,217);stroke:black;stroke-width:0.9px;"/>
    </g>
    <g transform="matrix(6.12323e-17,-1,1,6.12323e-17,222.119,621.898)">
        <path d="M459.25,89L461.5,93.5L457,93.5L459.25,89Z" style="fill:rgb(217,217,217);stroke:black;stroke-width:0.9px;"/>
    </g>
    <g transform="matrix(6.12323e-17,-1,1,6.12323e-17,222.119,682.898)">
        <path d="M459.25,89L461.5,93.5L457,93.5L459.25,89Z" style="fill:rgb(217,217,217);stroke:black;stroke-width:0.9px;"/>
    </g>
    <g transform="matrix(1,0,0,1,-63.5345,-24)">
        <text x="341.022px" y="43.116px" style="font-family:'ArialMT', 'Arial', sans-serif;font-size:6px;fill:rgb(128,128,128);">extends</text>
    </g>
    <g transform="matrix(1,0,0,1,-63.5345,37)">
        <text x="341.022px" y="43.116px" style="font-family:'ArialMT', 'Arial', sans-serif;font-size:6px;fill:rgb(128,128,128);">extends</text>
    </g>
    <g transform="matrix(1,0,0,1,-63.5345,98)">
        <text x="341.022px" y="43.116px" style="font-family:'ArialMT', 'Arial', sans-serif;font-size:6px;fill:rgb(128,128,128);">extends</text>
    </g>
    <g transform="matrix(1,0,0,1,-63.5345,162)">
        <text x="341.022px" y="43.116px" style="font-family:'ArialMT', 'Arial', sans-serif;font-size:6px;fill:rgb(128,128,128);">extends</text>
    </g>
    <g transform="matrix(1,0,0,1,-6.53455,190)">
        <text x="336.191px" y="43.116px" style="font-family:'ArialMT', 'Arial', sans-serif;font-size:6px;fill:rgb(128,128,128);">implements</text>
    </g>
    <g transform="matrix(1,0,0,1,-6.53455,128)">
        <text x="336.191px" y="43.116px" style="font-family:'ArialMT', 'Arial', sans-serif;font-size:6px;fill:rgb(128,128,128);">implements</text>
    </g>
    <g transform="matrix(1,0,0,1,-6.53455,66)">
        <text x="336.191px" y="43.116px" style="font-family:'ArialMT', 'Arial', sans-serif;font-size:6px;fill:rgb(128,128,128);">implements</text>
    </g>
    <g transform="matrix(1,0,0,1,-6.53455,4)">
        <text x="336.191px" y="43.116px" style="font-family:'ArialMT', 'Arial', sans-serif;font-size:6px;fill:rgb(128,128,128);">implements</text>
    </g>
    <g transform="matrix(1,0,0,1,126.293,20.3202)">
        <text x="341.022px" y="43.116px" style="font-family:'ArialMT', 'Arial', sans-serif;font-size:6px;fill:rgb(128,128,128);">extends</text>
    </g>
</svg>
