[
    { "name": "player", "path": "images/player.png"},
    { "name": "teacher", "path": "images/teacher.png" },
    { "name": "note", "path": "images/note.png" },
    { "name": "bullet", "path": "images/bullet.png" },
    { "name": "logo", "path": "images/logo-large.png" },
    { "name": "heart", "path": "images/heart.png" },

    { "name": "debris1", "path": "images/debris1.png" },
    { "name": "debris2", "path": "images/debris2.png" },
    { "name": "debris3", "path": "images/debris3.png" },
    { "name": "debris4", "path": "images/debris4.png" },
    { "name": "debris5", "path": "images/debris5.png" },

    { "name": "outro", "path": "images/outro.png" },

    { "name": "introMusic", "path": "music/channel227.mp3" },
    { "name": "gameMusic", "path": "music/walk-through-the-night-city.mp3" },

    { "name": "blip", "path": "sounds/blip.wav" },
    { "name": "correct", "path": "sounds/correct.wav" },
    { "name": "mistake", "path": "sounds/mistake.wav" },
    { "name": "shoot", "path": "sounds/shoot.wav" }
]